[gd_scene load_steps=3 format=2]

[ext_resource path="res://fade.gd" type="Script" id=1]

[sub_resource type="Animation" id=1]
resource_name = "fade"
tracks/0/type = "value"
tracks/0/path = NodePath("Control/black:modulate")
tracks/0/interp = 1
tracks/0/loop_wrap = true
tracks/0/imported = false
tracks/0/enabled = true
tracks/0/keys = {
"times": PoolRealArray( 0, 1 ),
"transitions": PoolRealArray( 1, 1 ),
"update": 0,
"values": [ Color( 1, 1, 1, 0 ), Color( 0, 0, 0, 1 ) ]
}

[node name="CanvasLayer" type="CanvasLayer"]
script = ExtResource( 1 )

[node name="Control" type="Control" parent="."]
margin_left = -3578.44
margin_top = -1496.77
margin_right = 6421.56
margin_bottom = 3503.23
__meta__ = {
"_edit_use_anchors_": false
}

[node name="black" type="ColorRect" parent="Control"]
modulate = Color( 1, 1, 1, 0 )
self_modulate = Color( 0, 0, 0, 1 )
margin_right = 10000.0
margin_bottom = 5000.0
color = Color( 0, 0, 0, 1 )

[node name="AnimationPlayer" type="AnimationPlayer" parent="."]
anims/fade = SubResource( 1 )
