[gd_scene load_steps=5 format=2]

[ext_resource path="res://icon.png" type="Texture" id=1]
[ext_resource path="res://Assets/Art/Background/cityBG1.0.png" type="Texture" id=2]
[ext_resource path="res://Assets/Experiments/Tony/testMatOnSprite.gd" type="Script" id=3]
[ext_resource path="res://Assets/Experiments/Tony/cityTestMat.tres" type="Material" id=4]

[node name="Node2D" type="Node2D"]

[node name="Sprite" type="Sprite" parent="."]
material = ExtResource( 4 )
position = Vector2( 21.3575, 20.8569 )
scale = Vector2( 1.66742, 1.65178 )
texture = ExtResource( 1 )
script = ExtResource( 3 )

[node name="city" type="Sprite" parent="."]
material = ExtResource( 4 )
position = Vector2( 124.65, 186.911 )
scale = Vector2( 0.998032, 1.09869 )
texture = ExtResource( 2 )
script = ExtResource( 3 )
[connection signal="item_rect_changed" from="Sprite" to="Sprite" method="_on_Sprite_item_rect_changed"]
